{
	"info": {
		"_postman_id": "96d8e48d-36bb-409a-bae1-c6ac2b188a55",
		"name": "ApiHubNotificationTrabajo",
		"schema": "https://schema.getpostman.com/json/collection/v2.1.0/collection.json"
	},
	"item": [
		{
			"name": "Usuario",
			"item": [
				{
					"name": "Registro Usuario",
					"request": {
						"method": "POST",
						"header": [
							{
								"key": "Content-Type",
								"name": "Content-Type",
								"value": "application/json",
								"type": "text"
							},
							{
								"key": "Api-Key",
								"value": "1e541260258862388c766ffc65ded0774c846b6ea053d91704c30085398c8351",
								"type": "text"
							}
						],
						"body": {
							"mode": "raw",
							"raw": "{\r\n  \"idUsuarioTrabajo\": 1,\r\n  \"idUsuarioGallito\": 1,\r\n  \"email\": \"gallito@gallito.scom\",\r\n  \"dispositivos\": [{\r\n  \t\"idDispositivo\": \"h5dsasesh1234\"\r\n  }],\r\n  \"suscripciones\": [{\r\n  \t\"idTag\": \"1\"\r\n  }]\r\n}"
						},
						"url": {
							"raw": "https://test-hub-notificaciones-app-trabajo.gallito.com.uy/api/v1/usuario",
							"protocol": "https",
							"host": [
								"test-hub-notificaciones-app-trabajo",
								"gallito",
								"com",
								"uy"
							],
							"path": [
								"api",
								"v1",
								"usuario"
							],
							"query": [
								{
									"key": "",
									"value": "",
									"disabled": true
								}
							]
						}
					},
					"response": []
				},
				{
					"name": "Modificar Usuario",
					"request": {
						"method": "PUT",
						"header": [
							{
								"key": "Content-Type",
								"value": "application/json",
								"type": "text"
							},
							{
								"key": "Api-Key",
								"value": "1e541260258862388c766ffc65ded0774c846b6ea053d91704c30085398c8351",
								"type": "text"
							}
						],
						"body": {
							"mode": "raw",
							"raw": "{\r\n  \"IdUsuarioGallito\":2,\r\n  \"Email\": \"gallito2@gallito.com\"\r\n}"
						},
						"url": {
							"raw": "https://test-hub-notificaciones-app-trabajo.gallito.com.uy/api/v1/usuario/1",
							"protocol": "https",
							"host": [
								"test-hub-notificaciones-app-trabajo",
								"gallito",
								"com",
								"uy"
							],
							"path": [
								"api",
								"v1",
								"usuario",
								"1"
							]
						}
					},
					"response": []
				},
				{
					"name": "Eliminar Usuario",
					"request": {
						"method": "DELETE",
						"header": [
							{
								"key": "Content-Type",
								"name": "Content-Type",
								"type": "text",
								"value": "application/json"
							},
							{
								"key": "Api-Key",
								"value": "1e541260258862388c766ffc65ded0774c846b6ea053d91704c30085398c8351",
								"type": "text"
							}
						],
						"url": {
							"raw": "https://test-hub-notificaciones-app-trabajo.gallito.com.uy/api/v1/usuario/1",
							"protocol": "https",
							"host": [
								"test-hub-notificaciones-app-trabajo",
								"gallito",
								"com",
								"uy"
							],
							"path": [
								"api",
								"v1",
								"usuario",
								"1"
							]
						}
					},
					"response": []
				},
				{
					"name": "Obtener Usuario",
					"request": {
						"method": "GET",
						"header": [
							{
								"key": "Content-Type",
								"value": "application/json",
								"type": "text"
							},
							{
								"key": "Api-Key",
								"value": "1e541260258862388c766ffc65ded0774c846b6ea053d91704c30085398c8351",
								"type": "text"
							}
						],
						"url": {
							"raw": "https://test-hub-notificaciones-app-trabajo.gallito.com.uy/api/v1/usuario/1",
							"protocol": "https",
							"host": [
								"test-hub-notificaciones-app-trabajo",
								"gallito",
								"com",
								"uy"
							],
							"path": [
								"api",
								"v1",
								"usuario",
								"1"
							]
						}
					},
					"response": []
				}
			],
			"protocolProfileBehavior": {}
		},
		{
			"name": "Suscripcion",
			"item": [
				{
					"name": "Registro Suscripcion Usuario",
					"request": {
						"method": "POST",
						"header": [
							{
								"key": "Content-Type",
								"value": "application/json",
								"type": "text"
							},
							{
								"key": "Api-Key",
								"value": "1e541260258862388c766ffc65ded0774c846b6ea053d91704c30085398c8351",
								"type": "text"
							}
						],
						"body": {
							"mode": "raw",
							"raw": "{\r\n\t\"Suscripcion\": [\r\n\t{\r\n\t\t\"IdTag\": \"1\"\r\n\t}, \r\n\t{\r\n\t\t\"IdTag\": \"3\"\r\n\t}\r\n\t]\r\n\t\r\n}",
							"options": {
								"raw": {
									"language": "json"
								}
							}
						},
						"url": {
							"raw": "https://test-hub-notificaciones-app-trabajo.gallito.com.uy/api/v1/usuario/1/suscripcion",
							"protocol": "https",
							"host": [
								"test-hub-notificaciones-app-trabajo",
								"gallito",
								"com",
								"uy"
							],
							"path": [
								"api",
								"v1",
								"usuario",
								"1",
								"suscripcion"
							]
						}
					},
					"response": []
				},
				{
					"name": "Obtener Suscripciones Usuario",
					"request": {
						"method": "GET",
						"header": [
							{
								"key": "Content-Type",
								"value": "application/json",
								"type": "text"
							},
							{
								"key": "Api-Key",
								"value": "1e541260258862388c766ffc65ded0774c846b6ea053d91704c30085398c8351",
								"type": "text"
							}
						],
						"url": {
							"raw": "https://test-hub-notificaciones-app-trabajo.gallito.com.uy/api/v1/usuario/1/suscripcion",
							"protocol": "https",
							"host": [
								"test-hub-notificaciones-app-trabajo",
								"gallito",
								"com",
								"uy"
							],
							"path": [
								"api",
								"v1",
								"usuario",
								"1",
								"suscripcion"
							]
						}
					},
					"response": []
				},
				{
					"name": "Eliminar Suscripcione Usuario",
					"request": {
						"method": "DELETE",
						"header": [
							{
								"key": "Content-Type",
								"value": "application/json",
								"type": "text"
							},
							{
								"key": "Api-Key",
								"value": "1e541260258862388c766ffc65ded0774c846b6ea053d91704c30085398c8351",
								"type": "text"
							}
						],
						"url": {
							"raw": "https://test-hub-notificaciones-app-trabajo.gallito.com.uy/api/v1/usuario/1/suscripcion/1",
							"protocol": "https",
							"host": [
								"test-hub-notificaciones-app-trabajo",
								"gallito",
								"com",
								"uy"
							],
							"path": [
								"api",
								"v1",
								"usuario",
								"1",
								"suscripcion",
								"1"
							]
						}
					},
					"response": []
				}
			],
			"protocolProfileBehavior": {}
		},
		{
			"name": "Tag",
			"item": [
				{
					"name": "Obtener Tags",
					"request": {
						"method": "GET",
						"header": [
							{
								"key": "Content-Type",
								"name": "Content-Type",
								"type": "text",
								"value": "application/json"
							},
							{
								"key": "Api-Key",
								"value": "1e541260258862388c766ffc65ded0774c846b6ea053d91704c30085398c8351",
								"type": "text"
							}
						],
						"url": {
							"raw": "https://test-hub-notificaciones-app-trabajo.gallito.com.uy/api/v1/tag",
							"protocol": "https",
							"host": [
								"test-hub-notificaciones-app-trabajo",
								"gallito",
								"com",
								"uy"
							],
							"path": [
								"api",
								"v1",
								"tag"
							]
						}
					},
					"response": []
				},
				{
					"name": "Registro Tag",
					"request": {
						"method": "POST",
						"header": [
							{
								"key": "Content-Type",
								"value": "application/json",
								"type": "text"
							},
							{
								"key": "Api-Key",
								"value": "1e541260258862388c766ffc65ded0774c846b6ea053d91704c30085398c8351",
								"type": "text"
							}
						],
						"body": {
							"mode": "raw",
							"raw": "{\n\t\"descripcion\": \"Sistemas\"\n}",
							"options": {
								"raw": {
									"language": "json"
								}
							}
						},
						"url": {
							"raw": "https://test-hub-notificaciones-app-trabajo.gallito.com.uy/api/v1/tag",
							"protocol": "https",
							"host": [
								"test-hub-notificaciones-app-trabajo",
								"gallito",
								"com",
								"uy"
							],
							"path": [
								"api",
								"v1",
								"tag"
							]
						}
					},
					"response": []
				},
				{
					"name": "Modificar Tag",
					"request": {
						"method": "PUT",
						"header": [
							{
								"key": "Content-Type",
								"value": "application/json",
								"type": "text"
							},
							{
								"key": "Api-Key",
								"value": "1e541260258862388c766ffc65ded0774c846b6ea053d91704c30085398c8351",
								"type": "text"
							}
						],
						"body": {
							"mode": "raw",
							"raw": "{\n\t\"descripcion\": \"Tecnologias de la informacion\"\n}",
							"options": {
								"raw": {
									"language": "json"
								}
							}
						},
						"url": {
							"raw": "https://test-hub-notificaciones-app-trabajo.gallito.com.uy/api/v1/tag/1",
							"protocol": "https",
							"host": [
								"test-hub-notificaciones-app-trabajo",
								"gallito",
								"com",
								"uy"
							],
							"path": [
								"api",
								"v1",
								"tag",
								"1"
							]
						}
					},
					"response": []
				},
				{
					"name": "Eliminar Tag",
					"request": {
						"method": "DELETE",
						"header": [
							{
								"key": "Content-Type",
								"value": "application/javascript",
								"type": "text"
							},
							{
								"key": "Api-Key",
								"value": "1e541260258862388c766ffc65ded0774c846b6ea053d91704c30085398c8351",
								"type": "text"
							}
						],
						"url": {
							"raw": "https://test-hub-notificaciones-app-trabajo.gallito.com.uy/api/v1/tag/1",
							"protocol": "https",
							"host": [
								"test-hub-notificaciones-app-trabajo",
								"gallito",
								"com",
								"uy"
							],
							"path": [
								"api",
								"v1",
								"tag",
								"1"
							]
						}
					},
					"response": []
				}
			],
			"protocolProfileBehavior": {}
		},
		{
			"name": "Dispositivo",
			"item": [
				{
					"name": "Registro Dispositivo",
					"request": {
						"method": "POST",
						"header": [
							{
								"key": "Content-Type",
								"value": "application/json",
								"type": "text"
							},
							{
								"key": "Api-Key",
								"value": "1e541260258862388c766ffc65ded0774c846b6ea053d91704c30085398c8351",
								"type": "text"
							}
						],
						"body": {
							"mode": "raw",
							"raw": "{\n\t\"idDispositivo\": \"ashdadsidddgaiasgadjas\"\n}",
							"options": {
								"raw": {
									"language": "json"
								}
							}
						},
						"url": {
							"raw": "https://test-hub-notificaciones-app-trabajo.gallito.com.uy/api/v1/usuario/1/dispositivo",
							"protocol": "https",
							"host": [
								"test-hub-notificaciones-app-trabajo",
								"gallito",
								"com",
								"uy"
							],
							"path": [
								"api",
								"v1",
								"usuario",
								"1",
								"dispositivo"
							]
						}
					},
					"response": []
				},
				{
					"name": "Obtener Dispositivos Usuario",
					"protocolProfileBehavior": {
						"disableBodyPruning": true
					},
					"request": {
						"method": "GET",
						"header": [
							{
								"key": "Content-Type",
								"value": "application/json",
								"type": "text"
							},
							{
								"key": "Api-Key",
								"value": "1e541260258862388c766ffc65ded0774c846b6ea053d91704c30085398c8351",
								"type": "text"
							}
						],
						"body": {
							"mode": "raw",
							"raw": "{\n\t\"idDispositivo\": \"ashdadsidddgaiasgadjas\"\n}",
							"options": {
								"raw": {
									"language": "json"
								}
							}
						},
						"url": {
							"raw": "https://test-hub-notificaciones-app-trabajo.gallito.com.uy/api/v1/usuario/1/dispositivo",
							"protocol": "https",
							"host": [
								"test-hub-notificaciones-app-trabajo",
								"gallito",
								"com",
								"uy"
							],
							"path": [
								"api",
								"v1",
								"usuario",
								"1",
								"dispositivo"
							]
						}
					},
					"response": []
				},
				{
					"name": "Eliminar Dispositivo Usuario",
					"request": {
						"method": "DELETE",
						"header": [
							{
								"key": "Content-Type",
								"value": "application/json",
								"type": "text"
							},
							{
								"key": "Api-Key",
								"value": "1e541260258862388c766ffc65ded0774c846b6ea053d91704c30085398c8351",
								"type": "text"
							}
						],
						"body": {
							"mode": "raw",
							"raw": "{\n\t\"idDispositivo\": \"ashdadsidddgaiasgadjas\"\n}",
							"options": {
								"raw": {
									"language": "json"
								}
							}
						},
						"url": {
							"raw": "https://test-hub-notificaciones-app-trabajo.gallito.com.uy/api/v1/usuario/1/dispositivo/ashdadsidddgaiasgadjas",
							"protocol": "https",
							"host": [
								"test-hub-notificaciones-app-trabajo",
								"gallito",
								"com",
								"uy"
							],
							"path": [
								"api",
								"v1",
								"usuario",
								"1",
								"dispositivo",
								"ashdadsidddgaiasgadjas"
							]
						}
					},
					"response": []
				}
			],
			"protocolProfileBehavior": {}
		}
	]
}